------------------------------------------------------------------------------
Exception 16.23156
IndexOutOfRangeException: Array index is out of range.
(wrapper stelemref) object:stelemref (object,intptr,object)
Flow.ObjectPool.CreatePool (UnityEngine.GameObject objectPrefab, Int32 num) (at Assets/Flow/Utils/ObjectPool.cs:55)
Flow.ObjectPool.Add (UnityEngine.GameObject objToPool) (at Assets/Flow/Utils/ObjectPool.cs:140)
Flow.Controllable.Awake () (at Assets/Flow/Controllable/Controllable.cs:49)
------------------------------------------------------------------------------
Log 16.22915
5 / 5 // 10
UnityEngine.Debug:Log(Object)
Flow.ObjectPool:CreatePool(GameObject, Int32) (at Assets/Flow/Utils/ObjectPool.cs:53)
Flow.ObjectPool:Add(GameObject) (at Assets/Flow/Utils/ObjectPool.cs:140)
Flow.Controllable:Awake() (at Assets/Flow/Controllable/Controllable.cs:49)
------------------------------------------------------------------------------
Log 16.22493
[ObjectPool]:Add new prefab CanonExplosion
UnityEngine.Debug:Log(Object)
Flow.ObjectPool:Add(GameObject) (at Assets/Flow/Utils/ObjectPool.cs:136)
Flow.Controllable:Awake() (at Assets/Flow/Controllable/Controllable.cs:49)
------------------------------------------------------------------------------
Exception 16.19524
IndexOutOfRangeException: Array index is out of range.
(wrapper stelemref) object:stelemref (object,intptr,object)
Flow.ObjectPool.CreatePool (UnityEngine.GameObject objectPrefab, Int32 num) (at Assets/Flow/Utils/ObjectPool.cs:55)
Flow.ObjectPool.Add (UnityEngine.GameObject objToPool) (at Assets/Flow/Utils/ObjectPool.cs:140)
Flow.Rain.Awake () (at Assets/Flow/Weather/Rain/Rain.cs:70)
------------------------------------------------------------------------------
Log 16.18419
5 / 5 // 10
UnityEngine.Debug:Log(Object)
Flow.ObjectPool:CreatePool(GameObject, Int32) (at Assets/Flow/Utils/ObjectPool.cs:53)
Flow.ObjectPool:Add(GameObject) (at Assets/Flow/Utils/ObjectPool.cs:140)
Flow.Rain:Awake() (at Assets/Flow/Weather/Rain/Rain.cs:70)
------------------------------------------------------------------------------
Log 16.18066
[ObjectPool]:Add new prefab WaterSplash
UnityEngine.Debug:Log(Object)
Flow.ObjectPool:Add(GameObject) (at Assets/Flow/Utils/ObjectPool.cs:136)
Flow.Rain:Awake() (at Assets/Flow/Weather/Rain/Rain.cs:70)
------------------------------------------------------------------------------
Log 16.16692
[Singleton] Using instance already created: DayNightCycle
UnityEngine.Debug:Log(Object)
Singleton`1:get_Instance() (at Assets/Flow/Utils/Singleton.cs:53)
Flow.Sun:Awake() (at Assets/Flow/Weather/Sun.cs:28)
------------------------------------------------------------------------------
Warning 11.60098
The tree Palm must use the Nature/Soft Occlusion shader. Otherwise billboarding/lighting will not work correctly.
------------------------------------------------------------------------------
Warning 11.43501
The tree Palm must use the Nature/Soft Occlusion shader. Otherwise billboarding/lighting will not work correctly.
------------------------------------------------------------------------------
Log 9.738525
4 / 5 // 10
UnityEngine.Debug:Log(Object)
Flow.ObjectPool:CreatePool(GameObject, Int32) (at Assets/Flow/Utils/ObjectPool.cs:53)
Flow.ObjectPool:Start() (at Assets/Flow/Utils/ObjectPool.cs:45)
------------------------------------------------------------------------------
Log 9.732376
3 / 5 // 10
UnityEngine.Debug:Log(Object)
Flow.ObjectPool:CreatePool(GameObject, Int32) (at Assets/Flow/Utils/ObjectPool.cs:53)
Flow.ObjectPool:Start() (at Assets/Flow/Utils/ObjectPool.cs:45)
------------------------------------------------------------------------------
Log 9.726082
2 / 5 // 10
UnityEngine.Debug:Log(Object)
Flow.ObjectPool:CreatePool(GameObject, Int32) (at Assets/Flow/Utils/ObjectPool.cs:53)
Flow.ObjectPool:Start() (at Assets/Flow/Utils/ObjectPool.cs:45)
------------------------------------------------------------------------------
Log 9.719628
1 / 5 // 10
UnityEngine.Debug:Log(Object)
Flow.ObjectPool:CreatePool(GameObject, Int32) (at Assets/Flow/Utils/ObjectPool.cs:53)
Flow.ObjectPool:Start() (at Assets/Flow/Utils/ObjectPool.cs:45)
------------------------------------------------------------------------------
Log 9.709866
0 / 5 // 10
UnityEngine.Debug:Log(Object)
Flow.ObjectPool:CreatePool(GameObject, Int32) (at Assets/Flow/Utils/ObjectPool.cs:53)
Flow.ObjectPool:Start() (at Assets/Flow/Utils/ObjectPool.cs:45)
------------------------------------------------------------------------------
Log 9.705795
[Singleton] Using instance already created: GameManager
UnityEngine.Debug:Log(Object)
Singleton`1:get_Instance() (at Assets/Flow/Utils/Singleton.cs:53)
Flow.ObjectPool:Start() (at Assets/Flow/Utils/ObjectPool.cs:35)
------------------------------------------------------------------------------
Log 9.628183
[ObjectPool]:Add new prefab ImpactConcrete
UnityEngine.Debug:Log(Object)
Flow.ObjectPool:Add(GameObject) (at Assets/Flow/Utils/ObjectPool.cs:136)
Flow.AbstractMaterial:Awake() (at Assets/Flow/Environments/PhysicsMaterial/AbstractMaterial.cs:22)
------------------------------------------------------------------------------
Log 9.625218
[Singleton] Using instance already created: AIManager
UnityEngine.Debug:Log(Object)
Singleton`1:get_Instance() (at Assets/Flow/Utils/Singleton.cs:53)
Flow.FPS.GameManager:Awake() (at Assets/Flow/FPS/Core/GameManager.cs:61)
------------------------------------------------------------------------------
Log 9.614391
[ObjectPool]:Add new prefab ImpactDust
UnityEngine.Debug:Log(Object)
Flow.ObjectPool:Add(GameObject) (at Assets/Flow/Utils/ObjectPool.cs:136)
Flow.AbstractMaterial:Awake() (at Assets/Flow/Environments/PhysicsMaterial/AbstractMaterial.cs:22)
------------------------------------------------------------------------------
Log 9.611548
[ObjectPool]:Add new prefab MetalSparkles
UnityEngine.Debug:Log(Object)
Flow.ObjectPool:Add(GameObject) (at Assets/Flow/Utils/ObjectPool.cs:136)
Flow.AbstractMaterial:Awake() (at Assets/Flow/Environments/PhysicsMaterial/AbstractMaterial.cs:22)
------------------------------------------------------------------------------
Log 9.607736
[Singleton] Using instance already created: GameManager
UnityEngine.Debug:Log(Object)
Singleton`1:get_Instance() (at Assets/Flow/Utils/Singleton.cs:53)
Flow.AbstractMaterial:Awake() (at Assets/Flow/Environments/PhysicsMaterial/AbstractMaterial.cs:22)
------------------------------------------------------------------------------
Log 8.580538
[Singleton] Using instance already created: Core
UnityEngine.Debug:Log(Object)
Singleton`1:get_Instance() (at Assets/Flow/Utils/Singleton.cs:53)
LaCommune.MapSelectionManager:StartLevel() (at Assets/Flow/LaCommune/UI/MapSelection/MapSelectionManager.cs:64)
LaCommune.MapSelectionManager:<Init>m__C() (at Assets/Flow/LaCommune/UI/MapSelection/MapSelectionManager.cs:50)
UnityEngine.EventSystems.EventSystem:Update()
------------------------------------------------------------------------------
Log 4.9822
System.String[]
UnityEngine.Debug:Log(Object)
LaCommune.MainMenuController:Start() (at Assets/Flow/LaCommune/UI/MainMenuController.cs:21)
------------------------------------------------------------------------------
Log 4.96276
[Singleton] Using instance already created: Core
UnityEngine.Debug:Log(Object)
Singleton`1:get_Instance() (at Assets/Flow/Utils/Singleton.cs:53)
LaCommune.MainMenuController:Start() (at Assets/Flow/LaCommune/UI/MainMenuController.cs:19)
